{
  "properties": [
    {
      "name": "jwt.header",
      "type": "java.lang.String",
      "description": "Description for jwt.header."
    },
    {
      "name": "jwt.expiration",
      "type": "java.lang.String",
      "description": "Description for jwt.expiration."
    },
    {
      "name": "jwt.secret",
      "type": "java.lang.String",
      "description": "Description for jwt.secret."
    }
  ] }